3977404039
3977404039
------------------------
4261502599
4261502599
------------------------
4244790919
4244790919
------------------------
4228079239
4228079239
------------------------
4211367559
4211367559
------------------------
4194655879
4194655879
------------------------
4177944199
4177944199
------------------------
4161232519
4161232519
------------------------
4144520839
4144520839
------------------------
4127809159
4127809159
------------------------
3676593799
3676593799
------------------------
4278214279
4278214279
------------------------
3726728839
3726728839
------------------------
3776863879
3776863879
------------------------
3943980679
3943980679
------------------------
4094385799
4094385799
------------------------
3826998919
3826998919
------------------------
3810287239
3810287239
------------------------
3927268999
3927268999
------------------------
4077674119
4077674119
------------------------
3994115719
3994115719
------------------------
4111097479
4111097479
------------------------
3910557319
3910557319
------------------------
3893845639
3893845639
------------------------
3877133959
3877133959
------------------------
3860422279
3860422279
------------------------
4060962439
4060962439
------------------------
3760152199
3760152199
------------------------
4010827399
4010827399
------------------------
4044250759
4044250759
------------------------
3843710599
3843710599
------------------------
3609747079
3609747079
------------------------
3743440519
3743440519
------------------------
3793575559
3793575559
------------------------
3960692359
3960692359
------------------------
4027539079
4027539079
------------------------
3693305479
3693305479

